{
  "on": [
    {
      "name": "Toronto",
      "latLng": [43.7182412, -79.378058]
    },
    {
      "name": "Mississauga",
      "latLng": [43.6091545, -79.6763878]
    },
    {
      "name": "Brampton",
      "latLng": [43.724934, -79.7595439]
    },
    {
      "name": "Hamilton",
      "latLng": [43.2608104, -79.9354333]
    },
    {
      "name": "London",
      "latLng": [42.948881, -81.24862]
    },
    {
      "name": "Ajax",
      "latLng": [43.8691397,-79.0290066]
    },
    {
      "name": "Milton",
      "latLng": [43.5231324,-79.942436]
    },
    {
      "name": "Whitby",
      "latLng": [43.9310792,-78.9645576]
    },
    {
      "name": "Oakville",
      "latLng": [43.4498343,-79.7180602]
    },
    {
      "name": "Newmarket",
      "latLng": [44.0502815,-79.461206]
    },
    {
      "name": "Markham",
      "latLng": [43.8807391, -79.2995385]
    },
    {
      "name": "Vaughan",
      "latLng": [43.837085, -79.565941]
    },
    {
      "name": "Kitchener",
      "latLng": [43.4304343, -80.4763151]
    },
    {
      "name": "Windsor",
      "latLng": [42.2926986, -83.002882]
    },
    {
      "name": "Burlington",
      "latLng": [43.3814301, -79.8419004]
    },
    {
      "name": "Oshawa",
      "latLng": [43.9488719, -78.878351]
    },
    {
      "name": "St. Catharines",
      "latLng": [43.1748004, -79.2492]
    },
    {
      "name": "Cambridge",
      "latLng": [43.4022995, -80.332588]
    },
    {
      "name": "Richmond Hill",
      "latLng": [43.9035689,-79.4283014]
    },
    {
      "name": "Kingston",
      "latLng": [44.3442157, -76.4733248]
    },
    {
      "name": "Guelph",
      "latLng": [43.534433, -80.240168]
    },
    {
      "name": "Waterloo",
      "latLng": [43.4822185, -80.5467194]
    },
    {
      "name": "Pickering",
      "latLng": [43.9025715, -79.114289]
    },
    {
      "name": "Niagara Falls",
      "latLng": [43.0539325, -79.088034]
    }
  ]
}